transcript
# Reading pref.tcl
pwd
# C:/Navya/VLSIGURU/verilog_code
cd assIGNMENTS
cd datatypes
do run.do
# ** Warning: (vlib-34) Library already exists at "work".
# Model Technology ModelSim - Intel FPGA Edition vlog 2020.1 Compiler 2020.02 Feb 28 2020
# Start time: 23:12:19 on Apr 12,2026
# vlog -reportprogress 300 tb_assignment5.v 
# -- Compiling module mux_8_1
# ** Warning: tb_assignment5.v(1): (vlog-2283) Extra semicolon in $unit (global) scope.
# ** Warning: tb_assignment5.v(18): (vlog-2284) Empty $unit scope found.
# -- Compiling package tb_assignment5_v_unit
# -- Compiling module tb
# 
# Top level modules:
# 	tb
# End time: 23:12:20 on Apr 12,2026, Elapsed time: 0:00:01
# Errors: 0, Warnings: 2
# vsim tb 
# Start time: 23:12:20 on Apr 12,2026
# Loading work.tb
# Loading work.mux_8_1
# time-> 0 ,i0=0 ,i1 = 0, i2=1 ,i3=0 ,i4=0 ,i5=1 ,i6=0 ,i7=1 ,sel=4 ,y=0 
# time-> 1 ,i0=0 ,i1 = 0, i2=0 ,i3=0 ,i4=1 ,i5=0 ,i6=1 ,i7=1 ,sel=1 ,y=0 
# time-> 2 ,i0=1 ,i1 = 0, i2=0 ,i3=0 ,i4=0 ,i5=0 ,i6=1 ,i7=1 ,sel=1 ,y=0 
# time-> 3 ,i0=0 ,i1 = 0, i2=1 ,i3=1 ,i4=0 ,i5=0 ,i6=1 ,i7=1 ,sel=3 ,y=1 
# time-> 4 ,i0=1 ,i1 = 0, i2=0 ,i3=0 ,i4=0 ,i5=1 ,i6=1 ,i7=0 ,sel=5 ,y=1 
# time-> 5 ,i0=1 ,i1 = 0, i2=0 ,i3=0 ,i4=1 ,i5=1 ,i6=0 ,i7=0 ,sel=5 ,y=1 
# time-> 6 ,i0=0 ,i1 = 0, i2=1 ,i3=1 ,i4=0 ,i5=0 ,i6=0 ,i7=1 ,sel=5 ,y=0 
# time-> 7 ,i0=0 ,i1 = 1, i2=0 ,i3=0 ,i4=0 ,i5=0 ,i6=1 ,i7=0 ,sel=2 ,y=0 
# time-> 8 ,i0=0 ,i1 = 0, i2=0 ,i3=0 ,i4=0 ,i5=1 ,i6=1 ,i7=0 ,sel=1 ,y=0 
# time-> 9 ,i0=1 ,i1 = 0, i2=0 ,i3=0 ,i4=0 ,i5=1 ,i6=0 ,i7=1 ,sel=5 ,y=1 
# time-> 10 ,i0=0 ,i1 = 1, i2=1 ,i3=1 ,i4=0 ,i5=1 ,i6=0 ,i7=0 ,sel=6 ,y=0 
# time-> 11 ,i0=1 ,i1 = 1, i2=1 ,i3=0 ,i4=0 ,i5=1 ,i6=0 ,i7=1 ,sel=5 ,y=1 
# time-> 12 ,i0=1 ,i1 = 0, i2=1 ,i3=1 ,i4=1 ,i5=1 ,i6=1 ,i7=1 ,sel=5 ,y=1 
# time-> 13 ,i0=1 ,i1 = 0, i2=0 ,i3=0 ,i4=1 ,i5=1 ,i6=1 ,i7=1 ,sel=4 ,y=1 
# time-> 14 ,i0=1 ,i1 = 1, i2=1 ,i3=1 ,i4=1 ,i5=1 ,i6=0 ,i7=0 ,sel=1 ,y=1 
# time-> 15 ,i0=0 ,i1 = 0, i2=0 ,i3=1 ,i4=1 ,i5=0 ,i6=0 ,i7=1 ,sel=6 ,y=0 
# time-> 16 ,i0=0 ,i1 = 0, i2=0 ,i3=1 ,i4=1 ,i5=0 ,i6=0 ,i7=1 ,sel=5 ,y=0 
# time-> 17 ,i0=1 ,i1 = 0, i2=1 ,i3=0 ,i4=1 ,i5=0 ,i6=1 ,i7=0 ,sel=2 ,y=1 
# time-> 18 ,i0=0 ,i1 = 0, i2=1 ,i3=1 ,i4=1 ,i5=1 ,i6=1 ,i7=1 ,sel=5 ,y=1 
# time-> 19 ,i0=0 ,i1 = 1, i2=1 ,i3=1 ,i4=0 ,i5=0 ,i6=1 ,i7=0 ,sel=7 ,y=0 
do run.do
# ** Warning: (vlib-34) Library already exists at "work".
# Model Technology ModelSim - Intel FPGA Edition vlog 2020.1 Compiler 2020.02 Feb 28 2020
# Start time: 23:26:59 on Apr 12,2026
# vlog -reportprogress 300 tb_assignment6.v 
# -- Compiling module mux_8_1
# ** Warning: tb_assignment6.v(1): (vlog-2283) Extra semicolon in $unit (global) scope.
# ** Warning: tb_assignment6.v(19): (vlog-2284) Empty $unit scope found.
# -- Compiling package tb_assignment6_v_unit
# -- Compiling module tb
# 
# Top level modules:
# 	tb
# End time: 23:26:59 on Apr 12,2026, Elapsed time: 0:00:00
# Errors: 0, Warnings: 2
# End time: 23:27:01 on Apr 12,2026, Elapsed time: 0:14:41
# Errors: 0, Warnings: 0
# vsim tb 
# Start time: 23:27:01 on Apr 12,2026
# Loading work.tb
# Loading work.mux_8_1
# time-> 0 ,i0=00 ,i1 = 01, i2=10 ,i3=10 ,i4=10 ,i5=01 ,i6=10 ,i7=10 ,sel=4 ,y=10 
# time-> 1 ,i0=00 ,i1 = 00, i2=01 ,i3=11 ,i4=11 ,i5=10 ,i6=10 ,i7=00 ,sel=1 ,y=00 
# time-> 2 ,i0=01 ,i1 = 00, i2=00 ,i3=11 ,i4=10 ,i5=10 ,i6=01 ,i7=10 ,sel=1 ,y=00 
# time-> 3 ,i0=00 ,i1 = 11, i2=00 ,i3=11 ,i4=10 ,i5=10 ,i6=00 ,i7=00 ,sel=3 ,y=11 
# time-> 4 ,i0=01 ,i1 = 00, i2=10 ,i3=01 ,i4=11 ,i5=11 ,i6=10 ,i7=00 ,sel=5 ,y=11 
# time-> 5 ,i0=01 ,i1 = 00, i2=11 ,i3=00 ,i4=11 ,i5=00 ,i6=11 ,i7=11 ,sel=5 ,y=00 
# time-> 6 ,i0=00 ,i1 = 11, i2=00 ,i3=10 ,i4=00 ,i5=00 ,i6=01 ,i7=01 ,sel=5 ,y=00 
# time-> 7 ,i0=10 ,i1 = 00, i2=00 ,i3=01 ,i4=10 ,i5=10 ,i6=10 ,i7=11 ,sel=2 ,y=00 
# time-> 8 ,i0=00 ,i1 = 00, i2=10 ,i3=01 ,i4=00 ,i5=11 ,i6=11 ,i7=01 ,sel=1 ,y=00 
# time-> 9 ,i0=01 ,i1 = 00, i2=10 ,i3=10 ,i4=01 ,i5=10 ,i6=11 ,i7=11 ,sel=5 ,y=10 
# time-> 10 ,i0=10 ,i1 = 11, i2=10 ,i3=00 ,i4=10 ,i5=11 ,i6=11 ,i7=01 ,sel=6 ,y=11 
# time-> 11 ,i0=11 ,i1 = 01, i2=10 ,i3=10 ,i4=01 ,i5=10 ,i6=11 ,i7=10 ,sel=5 ,y=10 
# time-> 12 ,i0=01 ,i1 = 11, i2=11 ,i3=11 ,i4=10 ,i5=10 ,i6=00 ,i7=10 ,sel=5 ,y=10 
# time-> 13 ,i0=01 ,i1 = 00, i2=11 ,i3=11 ,i4=10 ,i5=11 ,i6=11 ,i7=10 ,sel=4 ,y=10 
# time-> 14 ,i0=11 ,i1 = 11, i2=11 ,i3=00 ,i4=01 ,i5=11 ,i6=11 ,i7=10 ,sel=1 ,y=11 
# time-> 15 ,i0=00 ,i1 = 10, i2=01 ,i3=10 ,i4=00 ,i5=01 ,i6=10 ,i7=11 ,sel=6 ,y=10 
# time-> 16 ,i0=00 ,i1 = 10, i2=01 ,i3=10 ,i4=00 ,i5=00 ,i6=11 ,i7=11 ,sel=5 ,y=00 
# time-> 17 ,i0=01 ,i1 = 01, i2=01 ,i3=01 ,i4=10 ,i5=10 ,i6=11 ,i7=01 ,sel=2 ,y=01 
# time-> 18 ,i0=00 ,i1 = 11, i2=11 ,i3=11 ,i4=10 ,i5=11 ,i6=11 ,i7=11 ,sel=5 ,y=11 
# time-> 19 ,i0=10 ,i1 = 11, i2=00 ,i3=01 ,i4=10 ,i5=11 ,i6=00 ,i7=01 ,sel=7 ,y=01 
do run.do
# ** Warning: (vlib-34) Library already exists at "work".
# Model Technology ModelSim - Intel FPGA Edition vlog 2020.1 Compiler 2020.02 Feb 28 2020
# Start time: 23:56:02 on Apr 12,2026
# vlog -reportprogress 300 tb_assignment9.v 
# ** Error: (vlog-7) Failed to open design unit file "tb_assignment9.v" in read mode.
# No such file or directory. (errno = ENOENT)
# End time: 23:56:02 on Apr 12,2026, Elapsed time: 0:00:00
# Errors: 1, Warnings: 0
# ** Error: C:/intelFPGA/20.1/modelsim_ase/win32aloem/vlog failed.
# Error in macro ./run.do line 2
# C:/intelFPGA/20.1/modelsim_ase/win32aloem/vlog failed.
#     while executing
# "vlog tb_assignment9.v"
do run.do
# ** Warning: (vlib-34) Library already exists at "work".
# Model Technology ModelSim - Intel FPGA Edition vlog 2020.1 Compiler 2020.02 Feb 28 2020
# Start time: 23:56:24 on Apr 12,2026
# vlog -reportprogress 300 assignment9.v 
# -- Compiling module tb
# 
# Top level modules:
# 	tb
# End time: 23:56:24 on Apr 12,2026, Elapsed time: 0:00:00
# Errors: 0, Warnings: 0
# End time: 23:56:26 on Apr 12,2026, Elapsed time: 0:29:25
# Errors: 1, Warnings: 0
# vsim tb 
# Start time: 23:56:26 on Apr 12,2026
# Loading work.tb
#  5596368582376221231913686537 
# 55069396885315331984822606221 
# 55323488582589012274931032833 
#  2117797439343392082447158589 
# 36775938655496344762230630905 
# 70319761823527531663890567850 
# 35494023800425565309983970834 
# 22259779035621299526915495630 
# 75514922821105692772838951260 
# 68877532038674695596624258661 
# End time: 00:40:32 on Apr 13,2026, Elapsed time: 0:44:06
# Errors: 0, Warnings: 0
